<?xml version="1.0" encoding="UTF-8" standalone="no"?>
<!-- Created with Inkscape (http://www.inkscape.org/) -->

<svg
   xmlns:dc="http://purl.org/dc/elements/1.1/"
   xmlns:cc="http://creativecommons.org/ns#"
   xmlns:rdf="http://www.w3.org/1999/02/22-rdf-syntax-ns#"
   xmlns:svg="http://www.w3.org/2000/svg"
   xmlns="http://www.w3.org/2000/svg"
   xmlns:sodipodi="http://sodipodi.sourceforge.net/DTD/sodipodi-0.dtd"
   xmlns:inkscape="http://www.inkscape.org/namespaces/inkscape"
   width="18"
   height="12"
   id="svg2"
   version="1.1"
   inkscape:version="0.91 r"
   sodipodi:docname="PrivateMessage-Production.svg">
  <defs
     id="defs4" />
  <sodipodi:namedview
     id="base"
     pagecolor="#ffffff"
     bordercolor="#666666"
     borderopacity="1.0"
     inkscape:pageopacity="0.0"
     inkscape:pageshadow="2"
     inkscape:zoom="15.999999"
     inkscape:cx="-1.2306649"
     inkscape:cy="16.60671"
     inkscape:document-units="px"
     inkscape:current-layer="svg2"
     showgrid="true"
     inkscape:snap-bbox="true"
     inkscape:snap-bbox-midpoints="false"
     showguides="false"
     inkscape:guide-bbox="true"
     inkscape:bbox-nodes="true"
     inkscape:snap-bbox-edge-midpoints="false"
     inkscape:object-paths="true"
     inkscape:snap-intersection-paths="true"
     inkscape:snap-midpoints="false"
     inkscape:object-nodes="true"
     inkscape:window-width="1680"
     inkscape:window-height="1026"
     inkscape:window-x="0"
     inkscape:window-y="24"
     inkscape:window-maximized="1"
     fit-margin-top="0"
     fit-margin-left="0"
     fit-margin-right="0"
     fit-margin-bottom="0">
    <sodipodi:guide
       orientation="0,1"
       position="65.71428,21.298527"
       id="guide2987" />
    <sodipodi:guide
       orientation="0,1"
       position="65.71428,24.548527"
       id="guide2991" />
    <sodipodi:guide
       orientation="1,0"
       position="55.71428,27.798527"
       id="guide2993" />
    <sodipodi:guide
       orientation="1,0"
       position="75.71428,27.798527"
       id="guide2995" />
    <sodipodi:guide
       orientation="1,0"
       position="45.71428,27.798527"
       id="guide3001" />
    <sodipodi:guide
       orientation="1,0"
       position="85.71429,27.798527"
       id="guide3003" />
    <sodipodi:guide
       orientation="0,1"
       position="75.71428,27.798527"
       id="guide3005" />
    <sodipodi:guide
       orientation="1,0"
       position="50.71428,24.548527"
       id="guide3780" />
    <sodipodi:guide
       orientation="1,0"
       position="80.71429,24.548527"
       id="guide3782" />
    <sodipodi:guide
       orientation="0,1"
       position="65.71428,18.048527"
       id="guide3784" />
    <sodipodi:guide
       orientation="1,0"
       position="53.21428,24.548527"
       id="guide3786" />
    <sodipodi:guide
       orientation="1,0"
       position="78.21429,24.548527"
       id="guide3788" />
    <inkscape:grid
       type="xygrid"
       id="grid3790"
       empspacing="5"
       visible="true"
       enabled="true"
       snapvisiblegridlinesonly="true"
       originx="-190px"
       originy="-706.98718px" />
    <sodipodi:guide
       orientation="0,1"
       position="9,6.5480774"
       id="guide3807" />
  </sodipodi:namedview>
  <metadata
     id="metadata7">
    <rdf:RDF>
      <cc:Work
         rdf:about="">
        <dc:format>image/svg+xml</dc:format>
        <dc:type
           rdf:resource="http://purl.org/dc/dcmitype/StillImage" />
        <dc:title />
      </cc:Work>
    </rdf:RDF>
  </metadata>
  <path
     sodipodi:nodetypes="cccccccccccccc"
     inkscape:connector-curvature="0"
     id="rect3796"
     d="M 0,0 0,0.98718 9,5.77564 18,0.98718 18,0 z M 0,3.02525 0,12 18,12 18,3.02525 9.19687,7.72718 9,7.84256 8.80313,7.72718 z"
     style="fill:#ac001c;fill-opacity:1;fill-rule:nonzero;stroke:none" />
  <path
     sodipodi:nodetypes="ccccccccccc"
     inkscape:connector-curvature="0"
     id="path4320"
     d="M 9.9993976,7.572364 10,8.98718 11.413612,8.986578 12.120719,8.279471 10.706504,6.865258 Z m 1.4142144,-1.414213 1.414213,1.414213 7.071669,-7.070465 -1.414213,-1.4142136 z"
     style="opacity:1;fill:#ac001c;fill-opacity:1;stroke:#ffffff;stroke-width:2;stroke-linecap:round;stroke-linejoin:miter;stroke-miterlimit:4;stroke-dasharray:none;stroke-opacity:1" />
  <path
     style="opacity:1;fill:#ac001c;fill-opacity:1;stroke:none;stroke-width:8;stroke-linecap:round;stroke-linejoin:round;stroke-miterlimit:4;stroke-dasharray:none;stroke-opacity:1"
     d="M 9.9993976,7.572364 10,8.98718 11.413612,8.986578 12.120719,8.279471 10.706504,6.865258 Z m 1.4142144,-1.414213 1.414213,1.414213 7.071669,-7.070465 -1.414213,-1.4142136 z"
     id="rect4292"
     inkscape:connector-curvature="0"
     sodipodi:nodetypes="ccccccccccc" />
</svg>
